Alex Martinez Data Analysis Portfolio - Assignment 5 Processing Data
…
# Percentage of each category in LocationAbbr
location_dist <- data %>%
  group_by(LocationAbbr) %>%
  summarise(count = n()) %>%
  mutate(percentage = count / sum(count) * 100)

print(location_dist)

# A tibble: 48 × 3
   LocationAbbr count percentage
   <chr>        <int>      <dbl>
 1 AK              13       2.08
 2 AL               8       1.28
 3 AR               9       1.44
 4 AZ              19       3.04
 5 CA               5       0.8 
 6 CO              20       3.2 
 7 CT              19       3.04
 8 DE               6       0.96
 9 FL               8       1.28
10 GA              11       1.76
# ℹ 38 more rows
